{
    "error": false,
    "data": {
        "docs": [
            {
                "_id": "6490072176ff33bdd7b51cdc",
                "user": {
                    "_id": "646b434301f7500aa8206ef5",
                    "first_name": "jubair",
                    "last_name": "a",
                    "image": "https://appstick-resources.s3.ap-southeast-1.amazonaws.com/01supplies/store/646b434301f7500aa8206ef5/profile.jpg"
                },
                "product": "6460831b2dd2a0e5d648968b",
                "store": {
                    "_id": "646ef58f480bea6c4415316a"
                },
                "rating": 1,
                "review": "<svg onload={()=>alert(1)",
                "active": true,
                "createdAt": "2023-06-19T07:43:29.013Z",
                "updatedAt": "2023-06-19T07:43:29.013Z",
                "__v": 0
            },
            {
                "_id": "6490068476ff33bdd7b51c61",
                "user": {
                    "_id": "646b434301f7500aa8206ef5",
                    "first_name": "jubair",
                    "last_name": "a",
                    "image": "https://appstick-resources.s3.ap-southeast-1.amazonaws.com/01supplies/store/646b434301f7500aa8206ef5/profile.jpg"
                },
                "product": "646349ba8f02b4a90b339a70",
                "store": {
                    "_id": "646ef58f480bea6c4415316a"
                },
                "rating": 2,
                "review": "</p><script>alert(1)</script>",
                "active": true,
                "createdAt": "2023-06-19T07:40:52.003Z",
                "updatedAt": "2023-06-19T07:40:52.003Z",
                "__v": 0
            },
            {
                "_id": "6490062576ff33bdd7b51be6",
                "user": {
                    "_id": "646b434301f7500aa8206ef5",
                    "first_name": "jubair",
                    "last_name": "a",
                    "image": "https://appstick-resources.s3.ap-southeast-1.amazonaws.com/01supplies/store/646b434301f7500aa8206ef5/profile.jpg"
                },
                "product": "6461baaa0e8b4096918fa42e",
                "store": {
                    "_id": "646ef58f480bea6c4415316a"
                },
                "rating": 4,
                "review": "<script>alert(1)</script>",
                "active": true,
                "createdAt": "2023-06-19T07:39:17.317Z",
                "updatedAt": "2023-06-19T07:39:17.317Z",
                "__v": 0
            },
            {
                "_id": "649005fb76ff33bdd7b51bd8",
                "user": {
                    "_id": "646b434301f7500aa8206ef5",
                    "first_name": "jubair",
                    "last_name": "a",
                    "image": "https://appstick-resources.s3.ap-southeast-1.amazonaws.com/01supplies/store/646b434301f7500aa8206ef5/profile.jpg"
                },
                "product": "646a61d999d44af33c686d0a",
                "store": {
                    "_id": "646ef58f480bea6c4415316a"
                },
                "rating": 2,
                "review": "fasdf",
                "active": true,
                "createdAt": "2023-06-19T07:38:35.070Z",
                "updatedAt": "2023-06-19T07:38:35.070Z",
                "__v": 0
            },
            {
                "_id": "648fd4336ad1209d4cf9864c",
                "user": {
                    "_id": "6484baad5e639a468eaa4465",
                    "first_name": "Mr.",
                    "last_name": "Pickup_2"
                },
                "product": "646a495d99d44af33c686bf5",
                "store": {
                    "_id": "646ef58f480bea6c4415316a"
                },
                "rating": 3.5,
                "review": "test",
                "active": true,
                "createdAt": "2023-06-19T04:06:11.313Z",
                "updatedAt": "2023-06-19T04:06:11.313Z",
                "__v": 0
            },
            {
                "_id": "648d2d933bf566d1bfe53e5e",
                "user": {
                    "_id": "642922e96fbdc0bd7a7c1e64",
                    "first_name": "01 ",
                    "last_name": "Supplies",
                    "image": "https://appstick-resources.s3.ap-southeast-1.amazonaws.com/01supplies/store/642922e96fbdc0bd7a7c1e64/profile.webp"
                },
                "product": "646a5cef99d44af33c686cc8",
                "store": {
                    "_id": "646ef58f480bea6c4415316a"
                },
                "rating": 4,
                "active": true,
                "createdAt": "2023-06-17T03:50:43.868Z",
                "updatedAt": "2023-06-17T03:50:43.868Z",
                "__v": 0
            },
            {
                "_id": "648aadc51c48623ee2683d62",
                "user": {
                    "_id": "646b434301f7500aa8206ef5",
                    "first_name": "jubair",
                    "last_name": "a",
                    "image": "https://appstick-resources.s3.ap-southeast-1.amazonaws.com/01supplies/store/646b434301f7500aa8206ef5/profile.jpg"
                },
                "product": "646a5a5199d44af33c686c82",
                "store": {
                    "_id": "646ef58f480bea6c4415316a"
                },
                "rating": 4,
                "review": "asas",
                "active": true,
                "createdAt": "2023-06-15T06:20:53.044Z",
                "updatedAt": "2023-06-15T06:20:53.044Z",
                "__v": 0
            },
            {
                "_id": "648aac901c48623ee2683c39",
                "user": {
                    "_id": "646b434301f7500aa8206ef5",
                    "first_name": "jubair",
                    "last_name": "a",
                    "image": "https://appstick-resources.s3.ap-southeast-1.amazonaws.com/01supplies/store/646b434301f7500aa8206ef5/profile.jpg"
                },
                "product": "646a60bf99d44af33c686cf4",
                "store": {
                    "_id": "646ef58f480bea6c4415316a"
                },
                "rating": 3,
                "review": "test",
                "active": true,
                "createdAt": "2023-06-15T06:15:44.238Z",
                "updatedAt": "2023-06-15T06:15:44.238Z",
                "__v": 0
            },
            {
                "_id": "6489a32d1c48623ee2681692",
                "user": {
                    "_id": "642922e96fbdc0bd7a7c1e64",
                    "first_name": "01 ",
                    "last_name": "Supplies",
                    "image": "https://appstick-resources.s3.ap-southeast-1.amazonaws.com/01supplies/store/642922e96fbdc0bd7a7c1e64/profile.webp"
                },
                "product": "646349ba8f02b4a90b339a70",
                "rating": 4,
                "active": false,
                "createdAt": "2023-06-14T11:23:25.099Z",
                "updatedAt": "2023-06-18T00:07:02.942Z",
                "__v": 0,
                "store": {
                    "_id": "646ef58f480bea6c4415316a"
                }
            },
            {
                "_id": "6489590cab2c537bf57af673",
                "user": {
                    "_id": "646b2d4999d44af33c686ddf",
                    "first_name": "I am",
                    "last_name": "User",
                    "image": "https://appstick-resources.s3.ap-southeast-1.amazonaws.com/01supplies/store/6458942906c88c812ed2ec60/image.jpg"
                },
                "product": "646a64a899d44af33c686d32",
                "store": {
                    "_id": "646ef58f480bea6c4415316a"
                },
                "rating": 5,
                "review": "wow. nice",
                "active": true,
                "createdAt": "2023-06-14T06:07:08.970Z",
                "updatedAt": "2023-06-14T06:07:08.970Z",
                "__v": 0
            }
        ],
        "totalDocs": 18,
        "limit": 10,
        "page": 1,
        "totalPages": 2,
        "pagingCounter": 1,
        "hasPrevPage": false,
        "hasNextPage": true,
        "prevPage": null,
        "nextPage": 2
    }
}